Name,Address,"Address 2",City,State,Zip,Phone
"Jersey City","333 Washington Street",,"Jersey City,",NJ,07302,201-451-1911
"West New York","6209 Bergenline Ave.",,"West New York,",NJ,07093,"(201) 662-9292"
Newark,"18 Oliver Street",,"Newark,",NJ,07102,973-732-0650
Rutherford,"63 Meadow Road",,"Rutherford,",NJ,07070,201-438-4444
"Fort Lee","1642 Schlosser Street",,"Fort Lee,",NJ,07024,201-944-2725
Elizabeth,"416 Morris Avenue",,"Elizabeth,",NJ,07208,"(908) 662-3844"
Union,"2343 Morris Avenue",,"Union,",NJ,07083,908-349-8040
Paterson,"755 Main Street",,"Paterson,",NJ,07503,973-653-3610
"The Shoppes at Old Bridge","The Shoppes at Old Bridge ","3857 U.S. 9","Old Bridge,",NJ,08857,"(732) 970-1007"
Manalapan,"18 Wilson Avenue",,"Englishtown,",NJ,07726,732-851-7288
"Franklin Park","3391 Route 27",,"Franklin Park,",NJ,08823,732-422-0046
Freehold,"202 Mounts Corner Drive",,"Freehold,",NJ,07728,732-625-0700
"Toms River","1779 Hooper Avenue",,"Toms River,",NJ,08753,732-864-1999
Phillipsburg,"1262 Highway 22",,"Phillipsburg,",NJ,08865,"(877) 797-4325"
Marlton,"515 Route 73 South",,"Marlton,",NJ,08053,"(856) 797-2300"
"South Philly","330 Oregon Ave.",,"Philadelphia,",PA,19148,215-271-1072
