Name,Address,"Address 2",City,State,Zip,Phone
"Norton Shores Michigan","1052 E. Sternberg Road",,"Norton Shores",Michigan,49444,"(231) 747-9778"
"Holland Michigan","91 Douglas Avenue",#140,Holland,MI,49424,"(616) 396-1800"
"North Muskegon Michigan","1222 Holton Road",,"North Muskegon",Michigan,49445,"(231) 744-0878"
"Muskegon Michigan","3480 Apple Avenue",,Muskegon,MI,49442,"(231) 777-7070"
"Mattawan Michigan","52530 N. Main Street",,Mattawan,Michigan,49071,"(269) 668-6645"
"Plainwell Michigan","399 Oaks Crossing",,Plainwell,Michigan,49080,"(269) 685-8585"
"Wyoming Michigan","1228 28th SW",,Wyoming,Michigan,49509,"(616) 530-7800"
"Portage Michigan","6051 Constitution Blvd.",,Portage,Michigan,49024,"(269) 329-9000"
"Sparta Michigan","258 S. State Road",,Sparta,Michigan,49345,"(616) 887-8888"
"Grand Rapids Michigan","3317 Plainfield NE",,"Grand Rapids",Michigan,49425,"(616) 363-1645"
"Cascade Michigan","3030 Charlevoix Dr SE",,Cascade,MI,49546,"(616) 541-5444"
"Sturgis Michigan","943 S. Centerville Road",,Sturgis,Michigan,49091,"(269) 503-7095"
"Auburn Indiana","281 North Duesenberg Drive",,Auburn,Indiana,46706,"(260) 925.5700"
"Howell Michigan","4258 East Grand River Avenue",,Howell,Michigan,48843,"(517) 552-1530"
"Grand Blanc Michigan","11419 S Saginaw Street",,"Grand Blanc",Michigan,48439,"(810) 953-3870"
"Waterford Michigan","5217 Highland Road",,Waterford,Michigan,48327,"(248) 674 9800"
"Livonia Michigan","16112 Middlebelt Rd",,Livonia,Michigan,48154,"(734) 525-4636"
"Troy Michigan","4924 John R Rd","at Long Lake Rd.",Troy,Michigan,48085,"(248) 526-0364"
