Name,Address,Phone
Cotswold,"4410-B Monroe Road, Charlotte, NC 28205",704-502-3754
"Pewaukee &#8211; Coming Soon","N20W22951 Watertown Rd., Suite 111, Waukesha, WI 53186",262-701-7116
Lakeway,"2303 S RR 620, Suite 170, Lakeway, TX 78734",512-782-8754
Greenville,"2227 Augusta Street, Greenville, SC 29605",864-990-2020
Redmond,"8451 164th Ave. NE., Suite 100, Redmond, WA 98052",425-558-4766
"Overland Park","8809 W. 95th Street, Overland Park, KS 66212",913-649-2444
Southlake,"2360 Hwy 114, Southlake, TX 76092",817-789-9083
Leawood,"4800 W 135th Street, Suite 150, Leawood, KS 66224",913-897-8989
Cary,"329-E North Harrison Avenue, Cary, NC 27513",919-377-0586
NorthEast,"10013 Brownsboro Road, Louisville, KY 40241",502-619-5232
"East Memphis","454 Perkins Extd., Memphis, TN 38117",901-371-6170
Madison,"12060 County Line Road, Madison, AL 35756",256-216-5537
"East Cobb","4719 Lower Roswell Road, Marietta, GA 30068",770-971-7797
"Coral Gables","22 Merrick Way, Coral Gables, FL 33134",305-459-1552
Tuscaloosa,"2500 7th Street, Tuscaloosa, AL 35401",205-764-5688
Irmo,"735 Saturn Parkway, Suite 100, Columbia, SC 29212",803-220-0338
"Mount Pleasant","1145 Johnnie Dodds Blvd., Mt. Pleasant, SC 29464",843-388-8892
"Missouri City","4729 Highway 6, Missouri City, TX 77459",844-330-1166
"Brentwood MO","1336 Strassner Drive, Brentwood, MO 63144",314-265-3503
"Downtown NOLA","733 Saint Joseph Street, New Orleans, LA 70130",504-522-5454
Belmont,"3201 Belmont Boulevard, Nashville, TN 37212",615-636-6872
"Eastern Shore","10184 Eastern Shore Boulevard, Spanish Fort, AL 36527",251-753-2404
"Turkey Creek","11139 Turkey Drive, Knoxville, TN 37934",865-288-4390
Huntersville,"13015 Rosedale Hill Avenue, Huntersville, NC 28078",704-654-9118
"Cool Springs","1731 Mallory Lane, #106, Brentwood, TN 37027",615-953-3843
Naples,"6291 Naples Boulevard, Naples, FL 34109",239-513-9005
"Johns Creek","9700 Medlock Bridge Road, Suite 128, Duluth, GA 30097",678-417-8742
"North Shore","125 Cherokee Boulevard, Chattanooga, TN 37405",423-504-0945
Dilworth,"215 East Worthington Avenue, Charlotte, NC 28203",704-375-7810
Huntsville,"108 Woodson Street Northwest, Huntsville, AL 35801",256-469-6181
"North Raleigh","9009 Baileywick Road, Raleigh, NC 27615",919-610-4300
"East Montgomery","7927 Vaughn Road, Montgomery, AL 36116",334-356-9696
"Belle Meade","5205 Harding Pike, Nashville, TN 37205",615-979-3959
Brentwood,"214 Ward Circle, Suite 600, Brentwood, TN 37027",615-376-5050
"On Ponce","699 Ponce De Leon Avenue Northeast, Atlanta, GA 30308",404-858-9945
"Mountain Brook","15 Dexter Avenue, Birmingham, AL 35213",205-802-1775
"Highway 150","2942 John Hawkins Parkway, Birmingham, AL 35244",205-733-5900
"Highway 280","5029 U.S. 280, Suite 102, Birmingham, AL 35242",205-873-2135
Downtown,"300 27th Street South, Birmingham, AL 35233",205-254-6121
Homewood,"2740 Central Avenue, Homewood, AL 35209",205-874-6300
