Name,Address,Locale,Phone
"TIGER-ROCK MARTIAL ARTS - GREYSTONE","5426 HWY 280 SUITE 10","Birmingham, Alabama 35242","(205) 981-7777"
"Tiger-Rock Martial Arts of Enterprise","1032 BOLL WEEVIL CIRCLE STE I","ENTERPRISE, Alabama 36330","(334) 393-3939"
"Gardendale Martial Arts","1030 Main Street","Gardendale, Alabama 35071",205-631-0020
"BIRMINGHAM TKD","3417 OLD COLUMBIANA RD","HOOVER, Alabama 35226","(205) 823-1999"
"Greg Goff's Tiger Rock Martial Arts","930-A1 OLD MONROVIA ROAD","HUNTSVILLE, Alabama 35806","(256) 830-5454"
"SOUTH HUNTSVILLE TIGER ROCK MARTIAL ARTS","2124 Cecil Ashburn Drive STE 190","HUNTSVILLE, Alabama 35802",256-880-5250
"Jasper Tiger Rock Martial Arts","1508 HWY 78 East Suite 102","JASPER, Alabama 35501",205-745-1278
"Tiger-Rock Martial Arts of Montgomery","2750 Bell Road","Montgomery, Alabama 36117",334-244-1465
"NORTHPORT TKD ACAD","#1 RESOURCE LANE","NORTHPORT, Alabama 35473","(205) 339-7071"
"SHANE POPE'S TKD PLUS","2301 Enterprise Drive Suite E","Opelika, Alabama 36801",334-745-5330
"Pelham Tiger Rock Martial Arts","130 Corporate Way","PELHAM, Alabama 35124","(205) 663-0091"
"Crutchfields Tiger Rock Martial Arts","2144 COBBS FORD RD.","PRATTVILLE, Alabama 36066","(334) 290-1127"
"RAY DAVIS' TKD PLUS","3539 GREENVIEW AVE STE A","RAINBOW CITY, Alabama 35906","(256) 442-8950"
"Willie Toney's Tiger Rock TKD Academy","450 Gilmer Rd.","Tallasee, Alabama 36078","(334) 727-2845"
"BAILEY'S TAEKWONDO PLUS","1000 13th Street East","Tuscaloosa, Alabama 35404","(205) 759-4711"
"BAILEY'S TAEKWONDO-SOUTH","500 Patriot Parkway","TUSCALOOSA, Alabama 35405","(205) 343-6449"
"GLENDALE TKD ACADEMY","5820 W. GREENWAY ROAD SUITE 131","GLENDALE, Arizona 85306","(602) 993-7500"
"GOODYEAR TaeKwonDo","420 E. Loma Linda Blvd","Goodyear, Arizona 85338",602-993-7500
"ORANGE COUNTY TKD","1525 MESA VERDE E. SUITE 118","COSTA MESA, California 92626","(714) 979-6400"
"Moreno Valley TaeKwonDo Academy","25910 Iris Avenue, Suite 5A","Moreno Valley, California 92551","(951) 601-0021"
"Tiger-Rock Martial Arts of the Valley","29990 Hunter Rd Ste.104","Murrieta, California 92563",951-373-3071
"MENIFEE VALLEY TKD","29800 BRADLEY RD STE 122","SUN CITY, California 92586","(951) 679-1931"
"Knights Tiger-Rock Taekwondo - Byers","P.O. BOX 342","Benett, Colorado 80102",303-622-6671
"SPRINGS TKD","3586 HARTSEL DR. SUITE B","COLORADO SPRINGS, Colorado 80920","(719) 302-4797"
"Tiger-Rock Martial Arts- Pike's Peak","2836 N Powers Blvd","Colorado Springs, Colorado 80922",719-375-9966
"Fountain TKD","6861 Mesa Ridge Parkway","FOUNTAIN, Colorado 80817","(719) 302-3015"
"Tiger Rock Martial Arts of Lone Tree","7600 E PARK MEADOWS DR SUITE 900","LONE TREE, Colorado 80124",720-891-9497
"Tiger Rock Martial Arts of Parker","18671 E. Mainstreet Unit B","Parker, Colorado 80134",303-841-5425
"TIGER-ROCK MARTIAL ARTS","27 Azalea Drive Suite A&B","Crawfordville, Florida 32327","(850) 926-3777"
"GARY SEXTON'S TAEKWONDO PLUS","3235 GULF BREEZE PKWY","GULF BREEZE, Florida 32563","(850) 932-2248"
"TAEKWONDO PLUS","1575 PINE RIDGE RD #12","NAPLES, Florida 34109","(239) 596-2501"
"FINNEY'S TKD PLUS","3980 Tampa Road Suite 206","Oldsmar, Florida 34677","(813) 857-2850"
"TIGER ROCK TAEKWONDO ACADEMY","3981 HWY 90","PACE, Florida 32571","(850) 994-8610"
"ABERCROMBIE'S TIGER ROCK ACADEMY","9409 W HIGHWAY 98 UNIT 80","PENSACOLA, Florida 32506",850-453-8400
"TR Pensacola","1151 OFFICE WOODS DR STE E","PENSACOLA, Florida 32504","(850) 484-2644"
"MACKENZIE'S TKD","11039 HEARTH ROAD","SPRING HILL, Florida 34608","(352) 683-9328"
"Tiger-Rock Martial Arts Tallahassee","2785 CAPTIAL CIRCLE NE","TALLAHASSEE, Florida 32308","(850) 878-3900"
"Tiger-Rock Martial Arts of Tampa","5721 Gunn Highway","Tampa, Florida 33625",813-388-6850
"Tiger Rock Martial Arts of Alpharetta","5155 Atlanta Hwy STE107","ALPHARETTA, Georgia 30004",770-664-9979
"HOLLY SPRINGS TAEKWONDO ACADEMY","2228 Holly Springs Pkwy SUITE 200","CANTON, Georgia 30115","(770) 704-7902"
"BISHOP'S TKD ACADEMY","6086 COCA-COLA BLVD","COLUMBUS, Georgia 31909","(706) 562-9966"
"FT. BENNING TKD PLUS","6086 COCA-COLA BLVD.","COLUMBUS, Georgia 31909","(706) 562-9966"
"HIGGINBOTHAM'S TKD","1290 DOUBLE CHURCHES ROAD SUITE (M,N)","COLUMBUS, Georgia 31904","(706) 221-9677"
"Dahlonega Academy of Arts","4766 A HWY 52 E.","Dahlonega, Georgia 30533","(706) 300-9080"
"DICKSON'S TKD PLUS","8651 Hiram-Acworth Hwy","Dallas, Georgia 30157",678-331-1300
"Dalton Tiger Rock Martial Arts Academy","2919 E. Walnut Avenue SUITE A","DALTON, Georgia 30721","(706) 259-1901"
"FT. OGLETHORPE TKD","990 BATTLEFIELD PARKWAY","FT.OGLETHORPE, Georgia 30742",(706)-858-3550
"CLIFF MOSTILER'S TKD PLUS","1404 Lawrenceville-Suwanee Rd. SUITE 104","Lawrenceville, Georgia 30043","(770) 962-7333"
"MACON TIGER ROCK MARTIAL ARTS","4650 FORSYTH RD. STE. D","MACON, Georgia 31210","(478) 475-9920"
"Tiger Rock Martial Arts of Marietta","2100 roswell rd.","MARIETTA, Georgia 30062","(770) 973-4075"
"NEWTON'S TKD ACADEMY","3412 OLD PETERSBURG ROAD","MARTINEZ, Georgia 30907","(706) 868-6366"
"Tiger-Rock Academy of Roswell","920 Woodstock Rd Ste 250","Roswell, Georgia 30075",770-371-4695
"Tiger-Rock Martial Arts","15060 US Hwy 19 South Ste. 6","Thomasville, Georgia 31757",229-226-2299
"WARNER ROBINS TIGER-ROCK MARTIAL ARTS","590 CARL VINSON PARKWAY STE 100","WARNER ROBINS, Georgia 31088","(478) 923-2040"
"Bowen's TIGER ROCK Academy","1025 ROSE CREEK DRIVE SUITE 540","WOODSTOCK, Georgia 30189","(770) 516-4883"
"TIGER-ROCK MARTIAL ARTS","5776 Sunnybrook Dr","SIOUX CITY, Iowa 51106","(712) 266-0688"
"TIGER ROCK ACADEMY","14024 W 119TH ST","OLATHE, Kansas 66062","(913) 829-8818"
"CHEWNING'S TAEKWONDO","3330 PARTNER PLACE STE 140","LEXINGTON, Kentucky 40503","(859) 223-2842"
"Joel Neely's TKD Plus","14160 COURSEY BLVD.","BATON ROUGE, Louisiana 70817","(225) 753-0913"
"WALLACE BRITTON'S TAEKWONDO ACADEMY","1927 STARING LANE","BATON ROUGE, Louisiana 70808","(225) 448-3814"
"St. Charles Tae Kwon Do","13202 HIGHWAY 90, SUITE A","BOUTTE, Louisiana 70039","(504) 416-8220"
"DESTREHAN TKD PLUS","124 LONGVIEW DR","DESTREHAN, Louisiana 70047","(504) 443-4655"
"Tiger Rock of the Westbank","113 LA PALCO BLVD. STE 207","GRETNA, Louisiana 70056","(504) 394-0008"
"SLAUGHTER'S TKD ACAD","12402 HWY 190 W","HAMMOND, Louisiana 70401","(985) 345-3506"
"COTHREN'S TKD-HOUMA","1234 ST. CHARLES ST","HOUMA, Louisiana 70360","(985) 851-7772"
"MASTER FRANK MICHAEL'S TAEKWONDO PLUS","1920 Williams Blvd","KENNER, Louisiana 70065","(504) 443-4655"
"TIGER ROCK ACADIANA","1501 KALISTE SALOOM RD","LAFAYETTE, Louisiana 70508","(337) 281-9309"
"SIBLEYS' TIGER-ROCK TAEKWONDO ACADEMY","546 - 548 Belle Terre Blvd.","LAPLACE, Louisiana 70068","(985) 652-9661"
"Art Monroe's TaeKwonDo Plus MANDEVILLE","330 DALWILL ROAD","MANDEVILLE, Louisiana 70448","(985) 624-3455"
"OLD METAIRIE","605 METAIRIE RD STE D","METAIRIE, Louisiana 70005","(504) 831-1110"
"Tiger-Rock Martial Arts Metairie","2309 Clearview Pkwy. Suite 200","Metairie, Louisiana 70001","(504) 455-9699"
"Tiger-Rock of New Orleans","605 Metairie Rd.","Metairie, Louisiana 70005",504-899-6309
"TIGER ROCK MONROE-WEST MONROE","1104 OLIVER RD","MONROE, Louisiana 71201","(318) 325-4754"
"TAEKWONDO PLUS","817-B CRESWELL LANE","OPELOUSAS, Louisiana 70570","(337) 948-3433"
"Stephenson's Taekwondo Academy","1906 Julia St.","Rayville, Louisiana 71269",318-537-1793
"ELLIOTT SLAUGHTER'S TKD PLUS","3090 E. GAUSE BLVD.","SLIDELL, Louisiana 70461","(985) 345-3506"
"William Cothren’s TaeKwonDo Plus","1657 St. Mary Street","Thibodaux, Louisiana 70301",985-449-5425
"JASON GRIFFINS TKD","103 CHRISTIAN DRIVE SUITE D","BRANDON, Mississippi 39042",601-824-0058
"JR HENSLEY'S TIGER-ROCK MARTIAL ARTS","11382 THREE RIVERS ROAD","GULFPORT, Mississippi 39503","(228) 832-4418"
"Tiger-Rock Martial Arts - Gulfport","1842 E. PASS ROAD","GULFPORT, Mississippi 39507","(228) 861-1659"
"TIGER-ROCK MARTIAL ARTS OF OAK GROVE","28 MARKET COURT STE 40","HATTIESBURG, Mississippi 39402","(601) 268-3515"
"K.C. Jones Taekwondo Academy","202C EAST RAILROAD ST.","LONG BEACH, Mississippi 39560","(228) 822-1108"
"GRIFFIN'S TKD ACADEMY","125 DYESS RD.","RIDGELAND, Mississippi 39157","(601) 977-9000"
"TIGER ROCK ACADEMY","5900 S 85TH ST STE 100","LINCOLN, Nebraska 68526","(402) 483-1011"
"TIGER ROCK ACADEMY","8444 Executive Woods Dr STE B","LINCOLN, Nebraska 68512","(402) 483-1011"
"TIGER ROCK ACADEMY","14242 Fort Street.","OMAHA, Nebraska 68164","(402) 334-5425"
"TIGER ROCK ACADEMY","2410 S. 179TH ST","OMAHA, Nebraska 68130","(402) 334-5425"
"Scribner's Martial Arts","1053 South Street","Seward, Nebraska 68434",402-643-0566
"TIGER ROCK TKD ACADEMY OF WINNEMUCCA","3050 W. RAILROAD ST","WINNEMUCCA, Nevada 89445","(775) 623-4853"
"OVERSTREET TAEKWONDO ACADEMY","1600 B. EAST 10TH ST.","ALAMOGORDO, New Mexico 88310","(575) 439-5425"
"Johnson's Tiger Rock Martial Arts of Cary, North Carolina","204 Davis Grove Circle Ste 104","CARY, North Carolina 27519","(919) 469-5555"
"Tiger Rock Martial Arts","3755 Admiral Drive Suite #104","High Point, North Carolina 27265",336-869-8399
"TIGER-ROCK MARTIAL ARTS","5273 Sunset Lake Rd.","Holly Springs, North Carolina 27540",919-629-7129
"JACKSONVILLE TKD","1250 N6 Western Blvd","JACKSONVILLE, North Carolina 28546","(910) 347-7516"
"Tiger-Rock TaeKwonDo of Sanford","85 Amarillo Lane","Sanford, North Carolina 27332",919-498-6467
"Tiger Rock Martial Arts of Central Pennsylvania","98 BRIDGE STREET","NEW CUMBERLAND , Pennsylvania 17070",910-320-0537
"TIGER-ROCK MARTIAL ARTS","3 Diamond Lane","Columbia, South Carolina 29210",803-260-3597
"Tiger-Rock Martial Arts of Columbia","9557 TWO NOTCH RD.","COLUMBIA, South Carolina 29223","(803) 865-9603"
"GREENVILLE TAEKWONDO ACADEMY","477 HAYWOOD ROAD SUITE L","GREENVILLE, South Carolina 29607","(864) 458-9158"
"Tiger-Rock Martial Arts of Irmo","7320 Broad River Road, Suite L","IRMO, South Carolina 29063","(803) 240-0183"
"Tiger-Rock Martial Arts","317 Dakota Dunes Blvd.","Dakota Dunes, South Dakota 57049",712-266-0688
"SIOUX FALLS TKD","5109 S. CLIFF AVE.","SIOUX FALLS, South Dakota 57108","(605) 271-4646"
"ATHENS TIGERROCK MARTIAL ARTS","505 Decatur Pike","Athens, Tennessee 37303","(423) 745-4424"
"GREG ROYS TKD ACADEMY","6933 LEE HIGHWAY STE 300","CHATTANOOGA, Tennessee 37421","(423) 892-7557"
"Pope's Tiger Rock Martial Arts Academy","185 MOUSE CREEK RD.","CLEVELAND, Tennessee 37312","(423) 559-8992"
"JOHNSON'S TIGERROCK ACADEMY","200 ABLE DR. SUITE 15","DAYTON, Tennessee 37321","(423) 775-0198"
"DUNLAP TKD PLUS","PO Box 2167","DUNLAP, Tennessee 37327","(423) 309-1135"
"ROBINSON TAEKWONDO","102 Lumber Drive Ste. 600","FRANKLIN, Tennessee 37064","(615) 791-6655"
"RICK HALL'S TKD PLUS","5098 HIXSON PIKE","HIXSON, Tennessee 37343","(423) 877-3451"
"EVERS' TAEKWONDO ACADEMY","2925 North Roan Street","JOHNSON CITY, Tennessee 37601","(423) 926-4696"
"Kingsport Tiger Rock Martial Arts Academy","1400 Bridgewater Lane Suite B","KINGSPORT, Tennessee 37660",423-791-0100
"Tiger Rock Martial Arts of Knoxville","7336 NORRIS FREEWAY","KNOXVILLE, Tennessee 37918","(865) 922-0826"
"Tiger-Rock Martial Arts of West Knoxville","9111B Executive Park Drive","Knoxville, Tennessee 37923",865-247-4437
"MARK JOHNSON'S TAEKWONDO PLUS","1227 TAFT HIGHWAY","SIGNAL MOUNTAIN, Tennessee 37377","(423) 886-1512"
"RODGERS TAEKWONDO ACADEMY","3011 LONGFORD DR SUITE 11","SPRING HILL, Tennessee 37174","(615) 302-3304"
"NORTH AUSTIN TKD PLUS","12233 Ranch Road 620 Suite 109","Austin, Texas 78750","(512) 918-8025"
"RICHARD JOHNSON'S TKD PLUS","8213 BRODIE LN SUITE 107","AUSTIN, Texas 78745","(512) 280-0899"
"Tiger-Rock Martial Arts of Oak Hill","7401 HWY 71 SUITE 140","AUSTIN, Texas 78735","(512) 731-5425"
"Beaumont Tiger Rock Martial Arts","3803 CALDER AVENUE","BEAUMONT, Texas 77706","(409) 838-6667"
"TIGER ROCK TAEKWONDO OF FANNETT","15285 HWY 124","BEAUMONT, Texas 77705",409-724-6668
"Tiger Rock Martial Arts of Bridge City","1955 Miller Drive","Bridge City, Texas 77611",409-920-1462
"Tiger-Rock Martial Arts of Frisco","4040 Legacy Dr. Ste. 101","Frisco, Texas 75034","(214) 618-5020"
"TIGER ROCK TKD S. FTW","1601 Lipscomb","FT. WORTH, Texas 76104",214-755-9029
"Tiger-Rock Martial Arts of Houston","7303 Antoine Dr. Suite A","HOUSTON, Texas 77088","(281) 999-9078"
"Atascocita Taekwondo Academy","7040 FM 1960 E","HUMBLE, Texas 77346","(281) 852-9002"
"Tiger-Rock Martial Arts of Hutto","503 W FRONT ST","HUTTO, Texas 78634","(512) 846-1112"
"KATY TKD ACADEMY","625 S. MASON ROAD","KATY, Texas 77450","(281) 829-9300"
"Tiger Rock Martial Arts of Keller","750 S. Main St. #112","KELLER, Texas 76248","(817) 581-6075"
"KINGWOOD TKD ACADEMY","1313 Kingwood Drive","Kingwood, Texas 77339","(281) 358-0018"
"Northwest Tiger Rock Taekwondo Academy","3519 NW Loop 820","Lake Worth, Texas 76106",817-624-6644
"LEANDER TAEKWONDO PLUS","2403 S. 183 #104","LEANDER, Texas 78641","(512) 809-7689"
"LUMBERTON TAEKWONDO ACADEMY","927 SOUTH MAIN STREET","LUMBERTON, Texas 77657","(409) 755-7666"
"MAGNOLIA TAEKWONDO ACADEMY","6210 FM 1488 Suite A","MAGNOLIA, Texas 77354","(936) 273-2268"
"Tiger-Rock Martial Arts of McKinney","7250 Virginia Pkwy Suite 150","McKinney, Texas 75071",214-585-0555
"Tiger Rock TaeKwonDo of Mid-County","1427 S. HWY 69","NEDERLAND, Texas 77627","(409) 724-6668"
"NEW BRAUNFELS TIGER ROCK ACADEMY","1551 N. WALNUT AVE #48","NEW BRAUNFELS, Texas 78130","(830) 481-0589"
"Orange Tiger Rock Martial Arts","2318 LUTCHER DR","ORANGE, Texas 77632","(409) 838-6667"
"RISE MARTIAL ARTS","15806 WINDERMERE DR. BUILDING B","PFLUGERVILLE, Texas 78660","(512) 251-8088"
"PORTLAND TKD PLUS","1702 N. Hwy 181, Ste. B3","PORTLAND, Texas 78374","(361) 643-7853"
"ROUND ROCK TKD","1920 SAM BASS ROAD SUITE 200","ROUND ROCK, Texas 78681","(512) 246-9559"
"Tiger-Rock Martial Arts of Sugar Land","3163 HIGHWAY 6 SOUTH","SUGAR LAND, Texas 77478","(281) 491-4949"
"THE WOODLANDS TAEKWONDO ACADEMY","127-C SAWDUST","THE WOODLANDS, Texas 77380","(281) 367-8835"
"Tiger Rock Martial Arts of Tyler","4027 S. Broadway","TYLER, Texas 75701",903-509-8782
"Vidor Tiger Rock Martial Arts","2795 HIGHWAY 12","VIDOR, Texas 77662","(409) 504-7077"
"NORTHERN VIRGINIA TAEKWONDO ACADEMY","500 NELMS CIRCLE","FREDERICKSBURG, Virginia 22406","(540) 419-3330"
"Tiger-Rock Martial Arts of Spotsylvania","8800 Courthouse Rd","Spotsylvania, Virginia 22553","(540) 737-8826"
Available,Unkown,"Unkown, Wyoming Unkown",
