Serial Number,Model,Organization Name,Rep
339600,96,A&A Global Industries,LL
339791,96,A&A Global Industries,LL
339801,96,A&A Global Industries,LL
355402,96,Academy of Martial Arts,LL
378453,85,Adat Reyim,JS
339458,96,Adolph Kiefer & Associates (Sub-Distributor),JS
300808,77,Advance Business Systems,JG
300811,77,Advance Business Systems,JG
339761,96,Air Force Public Affairs,JS
339777,96,All Saints Church,JS
382108,85,Allegany Dental Care,JS
378164,82,American College of Cardiology,JG
378175,85,American College of Cardiology,JG
378182,85,American College of Cardiology,JG
378284,85,American College of Cardiology,JG
378332,85,American College of Cardiology,JG
378342,85,American College of Cardiology,JG
378420,85,American College of Cardiology,JG
378473,85,American College of Cardiology,JG
381066,85,American College of Cardiology,JG
381761,85,American College of Cardiology,JG
384239,96,American College of Cardiology,JG
388596,85,American College of Cardiology,JG
339487,96,"American Radiology Services, Inc.",LL
339738,96,"American Radiology Services, Inc.",LL
353283,96,"American Radiology Services, Inc.",LL
355398,96,"American Radiology Services, Inc.",LL
330411,96,American Society of Health System Pharmacists,LL
331683,96,American Society of Health System Pharmacists,LL
300783,77,Am-Kolel,JS
378167,85,Antioch Baptist Church,JS
378448,85,Antioch Baptist Church,JS
354414,96,Applied Ordinance Technology (SAIC),JS
382062,85,Applied Ordinance Technology (SAIC),JS
388200,85,Applied Ordinance Technology (SAIC),JS
388234,85,Applied Ordinance Technology (SAIC),JS
388278,85,Applied Ordinance Technology (SAIC),JS
388298,85,Applied Ordinance Technology (SAIC),JS
388316,85,Applied Ordinance Technology (SAIC),JS
331208,96,Archbishop Spalding HS,LL
383652,96,Archbishop Spalding HS,LL
355405,96,Argon ST (Formally Engineering),JS
355434,96,Argon ST (Formally Engineering),JS
4005733,105,"Arundel Heart Associates, P.A.",JS
348513,96,ASM Research,LL
349018,96,ASM Research,LL
325296,77,Balance Gym,LL
360347,85,Balt. Co. Employees Federal Credit Union,LL
366965,85,Baltimore County,JG
378105,85,Baltimore County,JG
378131,85,Baltimore County,JG
378137,85,Baltimore County,JG
378160,85,Baltimore County,JG
378308,85,Baltimore County,JG
378311,85,Baltimore County,JG
378320,85,Baltimore County,JG
378321,85,Baltimore County,JG
378326,85,Baltimore County,JG
378439,85,Baltimore County,JG
378479,85,Baltimore County,JG
301128,77,Baltimore Orioles Camden Yards,JG
305248,77,Baltimore Orioles Camden Yards,JG
305958,77,Baltimore Orioles Camden Yards,JG
317773,77,Baltimore Orioles Camden Yards,JG
319379,77,Baltimore Orioles Camden Yards,JG
319727,77,Baltimore Orioles Camden Yards,JG
320042,77,Baltimore Orioles Camden Yards,JG
321766,77,Baltimore Orioles Camden Yards,JG
4011281,96,Baltimore Orioles Camden Yards,JG
352385,96,Baltimore Orioles Sarasota,JG
4000103,105,Baltimore Orioles Sarasota,JG
4005700,105,Baltimore Orioles Sarasota,JG
4005714,105,Baltimore Orioles Sarasota,JG
4005720,105,Baltimore Orioles Sarasota,JG
4005722,105,Baltimore Orioles Sarasota,JG
4005723,105,Baltimore Orioles Sarasota,JG
4005749,105,Baltimore Orioles Sarasota,JG
355413,96,Baltimore Quality Assurance,LL
330050,96,Barrie School,JS
330441,96,Barrie School,JS
331728,96,Barrie School,JS
339769,96,Bavar Properties,JG
353736,96,Bavar Properties,JG
388548,85,Bay Area Community Church,LL
331737,96,Bethany Beach Volunteer Fire Department,LL
381806,85,Blades and Rosenfeld,LL
300819,77,B'nai Israel Congregation,LL
4009931,94,B'nai Israel Congregation,LL
354431,96,Board of Child Care,JS
362780,85,Boys Latin School,JG
362799,85,Boys Latin School,JG
378130,85,Boys Latin School,JG
380988,85,Boys Latin School,JG
381055,85,Boys Latin School,JG
384767,85,Boys Latin School,JG
388149,85,Boys Latin School,JG
352379,96,Brown Investment Advisory,LL
365059,85,"BRT Laboratories, Inc.",JS
378124,85,Bryn Mawr School,LL
378312,85,Bryn Mawr School,LL
378379,85,Bryn Mawr School,LL
382133,85,Bryn Mawr School,LL
382140,85,Bryn Mawr School,LL
330106,96,Burroughs & Chapin Company,LL
339486,96,Burroughs & Chapin Company,LL
352482,96,Burroughs & Chapin Company,LL
352624,96,Burroughs & Chapin Company,LL
353004,96,Burroughs & Chapin Company,LL
353349,96,Burroughs & Chapin Company,LL
355392,96,Burroughs & Chapin Company,LL
355935,96,Burroughs & Chapin Company,LL
356500,96,Burroughs & Chapin Company,LL
4009901,96,Burtonsville Baptist Church,JS
329989,96,BWI Lodging,LL
380952,85,Cadmus Communications,JS
334842,96,Calhoon/Meba Engineering School,LL
335528,96,Calhoon/Meba Engineering School,LL
337561,96,Calhoon/Meba Engineering School,LL
339800,96,Calhoon/Meba Engineering School,LL
346630,96,Calhoon/Meba Engineering School,LL
339670,95,Calvert Hall College High School,JS
378343,85,Campbell County Public Safety,JS
378347,85,Campbell County Public Safety,JS
316402,77,Cangene BioPharma (Formally Chesapeake Bio Lab),LL
362788,85,Catholic Relief Services,LL
380921,85,Chesapeake Employer's Ins,LL
388549,85,Chesapeake Employer's Ins,LL
330608,96,CIGNA HealthCare,JS
348456,96,City of Frederick Facilities Admin,JG
382070,85,City of Frederick- Municipal Office Annex,JG
348351,96,City of Frederick Public Works Dept,JG
4009946,94,City of Frederick Public Works Dept,JG
378339,85,City of Frederick WWTP,JG
352642,96,Classic Catering,LL
353023,96,Classic Catering,LL
357655,85,Coast Guard Curtis Bay Fire Dept.,LL
359404,85,Coast Guard Curtis Bay Fire Dept.,LL
359415,85,Coast Guard Curtis Bay Fire Dept.,LL
362741,85,Coast Guard Curtis Bay Fire Dept.,LL
362784,85,Coast Guard Curtis Bay Fire Dept.,LL
362829,85,Coast Guard Curtis Bay Fire Dept.,LL
362843,85,Coast Guard Curtis Bay Fire Dept.,LL
362853,85,Coast Guard Curtis Bay Fire Dept.,LL
362878,85,Coast Guard Curtis Bay Fire Dept.,LL
378364,85,Coast Guard Curtis Bay Fire Dept.,LL
378463,85,Coast Guard Curtis Bay Fire Dept.,LL
337542,96,Colgan Air,JG
337639,96,Colgan Air,JG
810468,7,Commonwealth Movers Inc.,JS
362783,85,"Compass Airlines, LLC",JG
362906,85,"Compass Airlines, LLC",JG
378433,85,"Compass Airlines, LLC",JG
380906,85,"Compass Airlines, LLC",JG
4011429,96,"Compass Airlines, LLC",JG
378095,85,Computer Technology Associates,LL
378470,85,Computer Technology Associates,LL
300782,77,Congregation Har Tzeon Agudath Achim,JG
300827,77,Congregation Har Tzeon Agudath Achim,JG
330399,96,Conney Safety Products,JG
330413,96,Conney Safety Products,JG
330476,96,Conney Safety Products,JG
330537,96,Conney Safety Products,JG
331918,96,Conney Safety Products,JG
352368,96,Conney Safety Products,JG
352370,96,Conney Safety Products,JG
352374,96,Conney Safety Products,JG
352391,96,Conney Safety Products,JG
352404,96,Conney Safety Products,JG
352644,96,Conney Safety Products,JG
353115,96,Conney Safety Products,JG
353116,96,Conney Safety Products,JG
353502,96,Conney Safety Products,JG
353505,96,Conney Safety Products,JG
353801,96,Conney Safety Products,JG
353802,96,Conney Safety Products,JG
354309,96,Conney Safety Products,JG
354384,96,Conney Safety Products,JG
354434,96,Conney Safety Products,JG
355394,96,Conney Safety Products,JG
360415,85,Conney Safety Products,JG
381821,88,Cosmos Club,LL
305789,77,"CoStar Group, Inc.",LL
305849,77,"CoStar Group, Inc.",LL
305938,77,"CoStar Group, Inc.",LL
352390,96,"CoStar Group, Inc.",LL
355419,96,"CoStar Group, Inc.",LL
355427,96,"CoStar Group, Inc.",LL
339418,96,Covance Labs,JS
339722,96,Covance Labs,JS
339742,96,Covance Labs,JS
353160,95,Cowan Systems,LL
355428,96,Cowan Systems,LL
4001067,85,CR Daniels Inc.,JS
353790,96,Crofton Country Club,LL
382066,85,Crown Sports Center,JS
321708,77,CTS Services (formerly Chesapeake Systems),LL
4000045,96,Culpeper County Sheriffs,JG
381044,85,Culpeper Police Department,JG
382069,85,Culpeper Police Department,JG
382122,85,Curves- Culpeper,LL
382120,85,Curves- Front Royal,LL
358014,96,Curves- Gaithersburg East,LL
381809,85,Curves- Inwood East Plaza,LL
388157,85,Curves- Lexington,LL
359978,96,Curves- Montgomery Village,LL
358422,96,Curves- Olney,LL
381060,85,Curves- Stephens City,LL
381053,85,Curves- Warrenton,LL
381040,85,Curves- Winchester,LL
362748,85,DavCo Restaurants,LL
365006,85,DavCo Restaurants,LL
378314,85,Davita,LL
330398,96,DC Courts,JG
339653,96,DC Courts,JG
339733,96,DC Courts,JG
339744,96,DC Courts,JG
339747,96,DC Courts,JG
339752,96,DC Courts,JG
339790,96,DC Courts,JG
353325,96,DC Courts,JG
353700,96,DC Water & Sewer Authority,LL
354101,121,DC Water & Sewer Authority,LL
354458,96,DC Water & Sewer Authority,LL
355388,96,"Diageo North America, Inc.",JS
355432,96,"Diageo North America, Inc.",JS
339771,96,Diamond Comics,JG
339810,96,Diamond Comics,JG
353720,96,Diamond Comics,JG
309291,77,Dick Mullins- Eastern Shore CPR Training,JG
382126,85,Diocese of Washington,JS
352233,96,DOD Cyber Crime Center,JS
352393,96,DOD Cyber Crime Center,JS
352402,96,DOD Cyber Crime Center,JS
355939,96,DOD Cyber Crime Center,JS
331691,96,"Dr. Alan Levine, D.D.S.",JS
378403,85,"Dr. Frederick Thornett, DDS",LL
330051,96,Dr. Jeffrey Croft,JS
353027,96,Dr. Neil Lamb,JS
330142,96,Dr. Nelson Hendler,LL
381792,85,Dr. Richard Fiorucci,JS
381077,85,Earthtreks Climbing Center,JG
381788,85,Earthtreks Climbing Center,JG
382141,85,Earthtreks Climbing Center,JG
378476,85,Emmanuel Church,LL
305878,77,Emmanuel-Brinklow 7th Day Adventist Church,JS
353103,96,Extra Bases,JS
381833,85,Fairmont Washington D.C. Hotel,LL
344870,96,Fannie Mae,JS
346256,96,Fannie Mae,JS
347956,96,Fannie Mae,JS
352426,96,Fannie Mae,JS
352430,96,Fannie Mae,JS
352465,96,Fannie Mae,JS
352519,96,Fannie Mae,JS
352740,96,Fannie Mae,JS
354000,96,Fannie Mae,JS
354248,96,Fannie Mae,JS
354264,96,Fannie Mae,JS
354461,96,Fannie Mae,JS
354882,96,Fannie Mae,JS
355554,96,Fannie Mae,JS
355773,96,Fannie Mae,JS
355944,96,Fannie Mae,JS
356066,96,Fannie Mae,JS
356958,96,Fannie Mae,JS
358806,96,Fannie Mae,JS
359108,96,Fannie Mae,JS
360890,96,Fannie Mae,JS
361196,96,Fannie Mae,JS
362401,96,Fannie Mae,JS
362459,96,Fannie Mae,JS
362661,96,Fannie Mae,JS
362981,96,Fannie Mae,JS
363085,96,Fannie Mae,JS
363087,96,Fannie Mae,JS
363108,96,Fannie Mae,JS
363166,96,Fannie Mae,JS
363496,96,Fannie Mae,JS
363506,96,Fannie Mae,JS
363507,96,Fannie Mae,JS
363517,96,Fannie Mae,JS
363521,96,Fannie Mae,JS
363533,96,Fannie Mae,JS
363543,96,Fannie Mae,JS
363562,96,Fannie Mae,JS
363568,96,Fannie Mae,JS
363577,96,Fannie Mae,JS
363584,96,Fannie Mae,JS
363595,96,Fannie Mae,JS
363597,96,Fannie Mae,JS
363600,96,Fannie Mae,JS
363603,96,Fannie Mae,JS
363606,96,Fannie Mae,JS
363607,96,Fannie Mae,JS
363610,96,Fannie Mae,JS
363611,96,Fannie Mae,JS
363615,96,Fannie Mae,JS
363616,96,Fannie Mae,JS
363617,96,Fannie Mae,JS
363619,96,Fannie Mae,JS
363625,96,Fannie Mae,JS
363639,96,Fannie Mae,JS
363644,96,Fannie Mae,JS
363651,96,Fannie Mae,JS
363660,96,Fannie Mae,JS
363661,96,Fannie Mae,JS
363681,96,Fannie Mae,JS
363685,96,Fannie Mae,JS
363703,96,Fannie Mae,JS
363832,96,Fannie Mae,JS
363888,96,Fannie Mae,JS
364136,96,Fannie Mae,JS
364154,96,Fannie Mae,JS
364156,96,Fannie Mae,JS
364194,96,Fannie Mae,JS
364285,96,Fannie Mae,JS
364290,96,Fannie Mae,JS
364293,96,Fannie Mae,JS
364296,96,Fannie Mae,JS
364301,96,Fannie Mae,JS
364303,96,Fannie Mae,JS
364306,96,Fannie Mae,JS
364309,96,Fannie Mae,JS
364312,96,Fannie Mae,JS
364314,96,Fannie Mae,JS
364319,96,Fannie Mae,JS
364321,96,Fannie Mae,JS
364324,96,Fannie Mae,JS
364349,96,Fannie Mae,JS
364357,96,Fannie Mae,JS
364362,96,Fannie Mae,JS
364369,96,Fannie Mae,JS
364402,96,Fannie Mae,JS
364410,96,Fannie Mae,JS
364411,96,Fannie Mae,JS
364414,96,Fannie Mae,JS
364732,96,Fannie Mae,JS
364748,96,Fannie Mae,JS
364761,96,Fannie Mae,JS
372998,96,Fannie Mae,JS
374520,96,Fannie Mae,JS
374528,96,Fannie Mae,JS
375337,96,Fannie Mae,JS
375379,96,Fannie Mae,JS
375413,96,Fannie Mae,JS
375454,96,Fannie Mae,JS
375616,96,Fannie Mae,JS
375702,96,Fannie Mae,JS
375703,96,Fannie Mae,JS
375711,96,Fannie Mae,JS
375714,96,Fannie Mae,JS
375717,96,Fannie Mae,JS
375721,96,Fannie Mae,JS
375724,96,Fannie Mae,JS
375728,96,Fannie Mae,JS
375731,96,Fannie Mae,JS
375743,96,Fannie Mae,JS
375745,96,Fannie Mae,JS
375749,96,Fannie Mae,JS
375754,96,Fannie Mae,JS
375755,96,Fannie Mae,JS
375759,96,Fannie Mae,JS
375760,96,Fannie Mae,JS
375766,96,Fannie Mae,JS
375768,96,Fannie Mae,JS
375769,96,Fannie Mae,JS
375771,96,Fannie Mae,JS
375783,96,Fannie Mae,JS
4014438,96,Fannie Mae,JS
4014439,96,Fannie Mae,JS
4014441,96,Fannie Mae,JS
4014444,96,Fannie Mae,JS
4014459,96,Fannie Mae,JS
4014460,96,Fannie Mae,JS
4014463,96,Fannie Mae,JS
4014464,96,Fannie Mae,JS
4014466,96,Fannie Mae,JS
4014494,96,Fannie Mae,JS
4014507,96,Fannie Mae,JS
4014513,96,Fannie Mae,JS
4014531,96,Fannie Mae,JS
4014540,96,Fannie Mae,JS
4014554,96,Fannie Mae,JS
4014555,96,Fannie Mae,JS
4014561,96,Fannie Mae,JS
4014563,96,Fannie Mae,JS
4014567,96,Fannie Mae,JS
4014568,96,Fannie Mae,JS
4014578,96,Fannie Mae,JS
4014588,96,Fannie Mae,JS
4014591,96,Fannie Mae,JS
4014593,96,Fannie Mae,JS
4014598,96,Fannie Mae,JS
4014600,96,Fannie Mae,JS
4017447,96,Fannie Mae,JS
329833,96,Fitness First,JG
329947,96,Fitness First,JG
330001,96,Fitness First,JG
330135,96,Fitness First,JG
330156,96,Fitness First,JG
330158,96,Fitness First,JG
330469,96,Fitness First,JG
330478,96,Fitness First,JG
330593,96,Fitness First,JG
330594,96,Fitness First,JG
331726,96,Fitness First,JG
331727,96,Fitness First,JG
331952,96,Fitness First,JG
339457,96,Fitness First,JG
354369,96,Fitness First,JG
355400,96,Fitness First,JG
355414,96,Flying Kicks Karate,JS
807817,7,Friendship Heights Village Coucil,LL
331201,96,Friendship Heights Village Council,LL
365254,85,Gallery Place c/o Transwestern,LL
360197,96,Gannett Fleming Incorporated,JS
355397,96,Garden of Remembrance,JS
300828,77,George Washington University,JG
338824,96,George Washington University,JG
339401,96,George Washington University,JG
339500,96,George Washington University,JG
339540,96,George Washington University,JG
339757,96,George Washington University,JG
339763,96,George Washington University,JG
339765,96,George Washington University,JG
339787,96,George Washington University,JG
378061,85,George Washington University,JG
378286,85,George Washington University,JG
378290,85,George Washington University,JG
378291,85,George Washington University,JG
378316,85,George Washington University,JG
378317,85,George Washington University,JG
378322,85,George Washington University,JG
378427,85,George Washington University,JG
378449,85,George Washington University,JG
378450,85,George Washington University,JG
378456,85,George Washington University,JG
378467,85,George Washington University,JG
330374,96,Giant Food,JS
330592,96,Giant Food,JS
300830,77,Glen Burnie Baptist Church,JS
300796,77,Good Counsel High School,JG
300797,77,Good Counsel High School,JG
300798,77,Good Counsel High School,JG
362554,96,Graeves Auto and Appliance,JG
381799,85,Gross Mendelsohn,JS
380911,85,"GSA, Triangle Service Center",JS
381013,85,"GSA, Triangle Service Center",JS
382057,85,"GSA, Triangle Service Center",JS
382104,85,"GSA, Triangle Service Center",JS
354307,96,Gym of Boca Raton,JS
355408,96,Harford County Parks & Rec,JS
381786,85,Harford Day School,JS
382105,85,Harford Day School,JS
330392,96,Harrisonburg City Public Schools,LL
330554,96,Harrisonburg City Public Schools,LL
378461,85,Harrisonburg-Rockingham Community Services,JS
378462,85,Harrisonburg-Rockingham Community Services,JS
378483,85,Harrisonburg-Rockingham Community Services,JS
378511,85,Harrisonburg-Rockingham Community Services,JS
354290,96,Homecrest House,JG
387810,85,Homecrest House,JG
388544,85,Homecrest House,JG
330287,96,Howard Hughes Medical Institute,JG
330306,96,Howard Hughes Medical Institute,JG
330612,96,Howard Hughes Medical Institute,JG
330758,96,Howard Hughes Medical Institute,JG
330823,96,Howard Hughes Medical Institute,JG
331723,96,Howard Hughes Medical Institute,JG
336209,96,Howard Hughes Medical Institute,JG
355473,96,Humane Society,LL
329049,95,Inova Health Source,JG
339779,96,Inova Health Source,JG
353107,96,Inova Health Source,JG
355403,96,Inova Health Source,JG
378313,85,Interfaith Alliance Foundation,JS
339652,96,"Investment Counselors of Maryland, LLC",LL
360672,96,JCC of Greater Washington,JG
360676,96,JCC of Greater Washington,JG
382110,85,JCC of Greater Washington,JG
372253,811,John Jakubowski,LL
381016,85,"Johnson, Mirmiran & Thompson",LL
388617,85,"Johnson, Mirmiran & Thompson",LL
378414,85,Joint Counter Intelligence Training Academy,JS
378454,85,Joint Counter Intelligence Training Academy,JS
382367,85,Joint Task Force Civil Support,JS
388545,85,"Joseph Greenwald & Laake, P.A.",LL
378183,85,Kate Goldberg,JS
330492,96,Kay Care,LL
810466,7,Kevin Krissoff,JG
300826,77,Kirkpatrick & Lockhart LLP,JS
330367,96,Legg Mason and Co.,LL
339435,96,Leisure World of Maryland Corp.,JS
339438,96,Leisure World of Maryland Corp.,JS
353223,96,Leisure World of Maryland Corp.,JS
809229,7,Little Zion Baptist Church,LL
352405,96,Lockheed Martin,LL
388584,85,LTG. (Ret.) Daniel W. Christman,JS
338198,91,Macfadden & Associates,LL
353810,96,Magiquest,LL
339505,96,Manassas Park City Schools,JS
339558,96,Manassas Park City Schools,JS
339782,96,Manassas Park City Schools,JS
353036,96,Manassas Park City Schools,JS
353722,96,Manassas Park City Schools,JS
353807,96,Maplewood at Park Place,JG
354115,96,Maplewood at Park Place,JG
327371,77,Marquip Ward United,LL
354357,96,Martin Luther King Elementary,JS
378125,85,Maryland Department of the Environment,LL
378158,85,Maryland Department of the Environment,LL
378335,85,Maryland Department of the Environment,LL
378337,85,Maryland Department of the Environment,LL
316209,77,Maryland National Guard,JG
316210,77,Maryland National Guard,JG
316225,77,Maryland National Guard,JG
318629,77,Maryland National Guard,JG
319200,77,Maryland National Guard,JG
319229,77,Maryland National Guard,JG
319238,77,Maryland National Guard,JG
319343,77,Maryland National Guard,JG
319347,77,Maryland National Guard,JG
319353,77,Maryland National Guard,JG
319369,77,Maryland National Guard,JG
321364,77,Maryland National Guard,JG
352310,96,Maryland National Guard,JG
352317,96,Maryland National Guard,JG
352325,96,Maryland National Guard,JG
353104,96,Maryland National Guard,JG
353731,96,Maryland National Guard,JG
353966,96,Maryland National Guard,JG
354465,96,Maryland National Guard,JG
365989,96,Maryland National Guard,JG
365996,96,Maryland National Guard,JG
365998,96,Maryland National Guard,JG
366003,96,Maryland National Guard,JG
367062,96,Maryland National Guard,JG
367067,96,Maryland National Guard,JG
367074,96,Maryland National Guard,JG
367101,96,Maryland National Guard,JG
367109,96,Maryland National Guard,JG
367119,96,Maryland National Guard,JG
367127,96,Maryland National Guard,JG
367159,96,Maryland National Guard,JG
367194,96,Maryland National Guard,JG
330586,96,Marymount University,JS
330736,96,Marymount University,JS
340444,96,"McKenna, Long & Aldridge, LLP",LL
340448,96,"McKenna, Long & Aldridge, LLP",LL
340458,96,"McKenna, Long & Aldridge, LLP",LL
340459,96,"McKenna, Long & Aldridge, LLP",LL
340475,96,"McKenna, Long & Aldridge, LLP",LL
340483,96,"McKenna, Long & Aldridge, LLP",LL
340505,96,"McKenna, Long & Aldridge, LLP",LL
340506,96,"McKenna, Long & Aldridge, LLP",LL
340512,96,"McKenna, Long & Aldridge, LLP",LL
340521,96,"McKenna, Long & Aldridge, LLP",LL
354318,96,Medical Mutual Liability Insurance,JS
354320,96,Medical Mutual Liability Insurance,JS
387796,85,Medical Supply Systems,JS
4009953,96,MedImmune-Frederick,LL
339443,96,MedImmune-Gaithersburg,JG
339455,96,MedImmune-Gaithersburg,JG
339631,96,MedImmune-Gaithersburg,JG
339985,96,MedImmune-Gaithersburg,JG
340113,96,MedImmune-Gaithersburg,JG
342182,96,MedImmune-Gaithersburg,JG
343027,96,MedImmune-Gaithersburg,JG
343034,96,MedImmune-Gaithersburg,JG
343043,96,MedImmune-Gaithersburg,JG
343219,96,MedImmune-Gaithersburg,JG
343241,96,MedImmune-Gaithersburg,JG
345591,96,MedImmune-Gaithersburg,JG
352757,96,MedImmune-Gaithersburg,JG
352777,96,MedImmune-Gaithersburg,JG
359269,96,MedImmune-Gaithersburg,JG
364707,96,MedImmune-Gaithersburg,JG
4009719,96,MedImmune-Gaithersburg,JG
4009739,96,MedImmune-Gaithersburg,JG
4009752,96,MedImmune-Gaithersburg,JG
4009782,96,MedImmune-Gaithersburg,JG
4010016,96,MedImmune-Gaithersburg,JG
4010054,96,MedImmune-Gaithersburg,JG
339430,96,Melwood Properties,JS
352337,96,Melwood Properties,JS
352377,96,Melwood Properties,JS
353034,96,Melwood Properties,JS
353715,96,Melwood Properties,JS
354324,96,Melwood Properties,JS
354391,96,Melwood Properties,JS
355404,96,Melwood Properties,JS
355410,96,Melwood Properties,JS
355430,96,Melwood Properties,JS
4011306,96,Merritt Properties-Lord Balt,LL
378478,85,"Mid-Atlantic Coca-Cola Bottling Co., Inc.",LL
319204,77,Mint Fitness,JS
378289,85,Montgomery County Chamber of Commerce,JG
353042,96,Montgomery County Fire and Rescue Service,JS
388186,85,Most Blessed Sacrament Catholic Church,JS
339467,96,National Center for Missing and Exploited Children,JS
339585,96,National Center for Missing and Exploited Children,JS
339788,96,National Center for Missing and Exploited Children,JS
339808,96,National Center for Missing and Exploited Children,JS
331699,96,National Golf Management,JS
339414,96,National Golf Management,JS
352328,96,National Golf Management,JS
331698,96,National Hurricane Center,JS
330154,96,National Marine Fisheries,JS
330379,96,National Marine Fisheries,JS
330584,96,National Marine Fisheries,JS
334818,95,National Marine Fisheries,JS
339490,96,National Marine Fisheries,JS
382138,85,National Rehab (NRH),LL
382111,85,Nationwide Better Health,LL
357023,96,NATO SEASPARROW Project,JS
357035,96,NATO SEASPARROW Project,JS
357101,96,NATO SEASPARROW Project,JS
353106,96,Neelesville Presbyterian Church,LL
352401,96,Neutron Products,JS
339570,96,New Hope Bible Church,LL
378288,85,Next Level,JS
352528,96,Nielsen,LL
352897,96,Nielsen,LL
353024,96,Nielsen,LL
353028,96,Nielsen,LL
353029,96,Nielsen,LL
353031,96,Nielsen,LL
353054,96,Nielsen,LL
353322,96,Nielsen,LL
353332,96,Nielsen,LL
353716,96,Nielsen,LL
380885,85,NOAA,LL
380895,85,NOAA,LL
381071,85,NOAA,LL
382071,85,NOAA,LL
382079,85,NOAA,LL
382106,85,NOAA,LL
382137,85,NOAA,LL
330000,96,NOAA Fisheries,LL
330453,96,NOAA Fisheries,LL
330494,96,NOAA Fisheries,LL
330544,96,NOAA Fisheries,LL
331722,96,NOAA Fisheries,LL
339681,96,NOAA Fisheries,LL
378117,85,"Noblis, Inc.",LL
378309,85,"Noblis, Inc.",LL
378368,85,"Noblis, Inc.",LL
378474,85,"Noblis, Inc.",LL
4009759,96,"Noblis, Inc.",LL
373582,96,Northern Virginia Regional Park Authority,JG
339472,96,Northrop Grumman - Arlington,LL
339701,96,Northrop Grumman - Arlington,LL
352312,96,Northrop Grumman - Arlington,LL
352364,96,Northrop Grumman - Arlington,LL
352373,96,Northrop Grumman - Arlington,LL
353718,96,Northrop Grumman - Arlington,LL
354349,96,Northrop Grumman - Arlington,LL
354494,96,Northrop Grumman - Arlington,LL
355426,96,Northrop Grumman - Arlington,LL
339536,96,Northrop Grumman/ King George,LL
339537,96,Northrop Grumman/ King George,LL
351364,96,Northrop Grumman/ King George,LL
351397,96,Northrop Grumman/ King George,LL
378162,85,Norwood School,LL
378328,85,Norwood School,LL
330034,96,Notre Dame of Maryland University,LL
378306,811,Nutramax,LL
387880,85,Nutramax,LL
388174,85,Nutramax,LL
388195,85,Oak Grove Baptist Church,JS
388577,85,Oak Grove Baptist Church,JS
388618,85,Oak Grove Baptist Church,JS
388180,85,Oakdale Emory Church,JS
388213,85,Oakdale Emory Church,JS
388588,85,Oakdale Emory Church,JS
353030,96,Ober Kaler,LL
353052,96,Ober Kaler,LL
353122,96,Ober Kaler,LL
330581,96,Office of Naval Research,LL
333873,85,Office of Naval Research,LL
300764,77,Olney Boys and Girls Club,JG
309291,77,Olney Boys and Girls Club,JG
380111,85,"Oracle Transcription, Inc.",LL
380333,85,"Oracle Transcription, Inc.",LL
381074,85,"Oracle Transcription, Inc.",LL
381078,85,"Oracle Transcription, Inc.",LL
4009971,96,"Orion Safety Products, Inc.",JS
380884,85,Our Shepherd Lutheran Church,JS
378305,85,Padonia Park Club,LL
316325,77,Pepco,JG
329945,96,Pepco,JG
330500,96,Pepco,JG
330539,96,Pepco,JG
331718,96,Pepco,JG
357044,96,Pepco,JG
359505,96,Pepco,JG
359506,96,Pepco,JG
359515,96,Pepco,JG
359516,96,Pepco,JG
359517,96,Pepco,JG
359533,96,Pepco,JG
359595,96,Pepco,JG
359614,96,Pepco,JG
359624,96,Pepco,JG
359628,96,Pepco,JG
359637,96,Pepco,JG
359706,96,Pepco,JG
359707,96,Pepco,JG
359709,96,Pepco,JG
359713,96,Pepco,JG
359726,96,Pepco,JG
359735,96,Pepco,JG
359737,96,Pepco,JG
361893,96,Pepco,JG
367078,96,Pepco,JG
367110,96,Pepco,JG
367116,96,Pepco,JG
367139,96,Pepco,JG
352315,96,Polyone,JS
352625,96,Polyone,JS
331212,96,Poole & Kent,LL
339656,96,Poole & Kent,LL
339766,96,Potomac Valley Orthopedics - Columbia,LL
339795,96,Potomac Valley Orthopedics - Columbia,LL
381759,85,Prince of Peace Lutheran Church,JS
343501,96,Queen Anne YMCA,LL
352639,96,Quince Orchard Swim & Tennis Club,LL
339434,96,"Rainbow Day Care Center,Inc.",JS
380896,85,Rana San Martin,JS
323825,77,Rescue Partners,JG
388552,85,Rockville Ice Arena,LL
350193,96,Roland Park Country School,LL
350883,96,Roland Park Country School,LL
388204,85,Rolls Royce North America,JS
362903,85,"Rosenberg, Martin, Funk, Greenberg, LLP",JS
339439,96,"Ross, Dixon and Bell, LLP",LL
339489,96,"Ross, Dixon and Bell, LLP",LL
339497,96,"Ross, Dixon and Bell, LLP",LL
339538,96,"Ross, Dixon and Bell, LLP",LL
381750,85,Rukert Terminals Corporation,LL
381773,85,Rukert Terminals Corporation,LL
381790,85,Rukert Terminals Corporation,LL
300168,78,Ryan Gardner,LL
378346,85,"S. Freedman & Sons, Inc.",LL
382131,85,"S. Freedman & Sons, Inc.",LL
381744,85,S.W.I.F.T.,LL
335579,96,Saddlebrooke,LL
300781,77,Salisbury State University Police,JG
300787,77,Salisbury State University Police,JG
300789,77,Salisbury State University Police,JG
300790,77,Salisbury State University Police,JG
313371,77,Salisbury State University Police,JG
314803,77,Salisbury State University Police,JG
300163,78,Salisbury University,JG
300164,78,Salisbury University,JG
300788,77,Salisbury University,JG
313680,77,Salisbury University,JG
319332,77,Salisbury University,JG
319725,77,Salisbury University,JG
320056,77,Salisbury University,JG
320061,77,Salisbury University,JG
320064,77,Salisbury University,JG
320132,77,Salisbury University,JG
320457,77,Salisbury University,JG
320461,77,Salisbury University,JG
320470,77,Salisbury University,JG
320475,77,Salisbury University,JG
320490,77,Salisbury University,JG
320502,77,Salisbury University,JG
321558,77,Salisbury University,JG
321619,77,Salisbury University,JG
321632,77,Salisbury University,JG
321705,77,Salisbury University,JG
321715,77,Salisbury University,JG
321716,77,Salisbury University,JG
323730,77,Salisbury University,JG
323838,77,Salisbury University,JG
360042,96,Salisbury University,JG
392330,85,Salvation Army - Suffern NY,LL
392423,85,Salvation Army - Suffern NY,LL
392435,85,Salvation Army - Suffern NY,LL
378323,85,"Samuel-Sons & Company, Inc.",LL
354043,96,Sarge Athletics,LL
352522,96,Sequoia Management Company,LL
353227,95,Service Line Inc.,JS
330104,96,"Shapiro,Lifschitz and Schram, P.C.",JS
352378,96,Shenandoah Valley- Westminster Canterbury,LL
353559,96,Shenandoah Valley- Westminster Canterbury,LL
355399,96,Shenandoah Valley- Westminster Canterbury,LL
339493,96,Sheppard Pratt Health System,LL
4011420,96,SHRM,LL
331692,96,"Shulman, Rogers, Gandal, Pordy & Ecker, P.A.",JG
339734,96,"Shulman, Rogers, Gandal, Pordy & Ecker, P.A.",JG
339785,96,"Shulman, Rogers, Gandal, Pordy & Ecker, P.A.",JG
382720,96,"Shulman, Rogers, Gandal, Pordy & Ecker, P.A.",JG
384804,85,Silver Spring Urban District,JG
387912,85,Silver Spring Urban District,JG
378145,85,SMACNA,LL
378324,85,SMACNA,LL
362796,85,Smiths Detection Inc.,LL
362805,85,Smiths Detection Inc.,LL
355438,96,Sotera Defense,JS
355471,96,Sotera Defense,JS
329981,96,Southern Maryland Electric Co-op,JG
330151,96,Southern Maryland Electric Co-op,JG
331166,96,Southern Maryland Electric Co-op,JG
332020,96,Southern Maryland Electric Co-op,JG
355387,96,Southern Maryland Electric Co-op,JG
384200,95,Southern Maryland Electric Co-op,JG
384236,95,Southern Maryland Electric Co-op,JG
352518,96,St. John Neumann Catholic Church,JS
339499,96,St. John Properties,LL
339641,96,St. John Properties,LL
388205,85,St. Johns Episcopal Church- Bethesda,JS
378121,85,St. Johns Episcopal School Olney,JS
378141,85,St. Johns Episcopal School Olney,JS
378302,85,St. Johns Episcopal School Olney,JS
378334,85,St. Johns Episcopal School Olney,JS
382068,85,St. Johns Episcopal School Olney,JS
353796,96,St. Johns Lutheran Church,JS
382128,85,St. Joseph Parish,RC
331697,96,Sumner Fitness,LL
381031,85,T Rowe Price,JG
381769,85,T Rowe Price,JG
381802,85,T Rowe Price,JG
382051,85,T Rowe Price,JG
382065,85,T Rowe Price,JG
382075,85,T Rowe Price,JG
382114,85,T Rowe Price,JG
383155,85,T Rowe Price,JG
387785,85,T Rowe Price,JG
387805,85,T Rowe Price,JG
387840,85,T Rowe Price,JG
388161,85,T Rowe Price,JG
388162,85,T Rowe Price,JG
388168,85,T Rowe Price,JG
388170,85,T Rowe Price,JG
388182,85,T Rowe Price,JG
388191,85,T Rowe Price,JG
388210,85,T Rowe Price,JG
388221,85,T Rowe Price,JG
388232,85,T Rowe Price,JG
388240,85,T Rowe Price,JG
388265,85,T Rowe Price,JG
388273,85,T Rowe Price,JG
388306,85,T Rowe Price,JG
388308,85,T Rowe Price,JG
388322,85,T Rowe Price,JG
388325,85,T Rowe Price,JG
388336,85,T Rowe Price,JG
388551,85,T Rowe Price,JG
388554,85,T Rowe Price,JG
388555,85,T Rowe Price,JG
388558,85,T Rowe Price,JG
388561,85,T Rowe Price,JG
388562,85,T Rowe Price,JG
388563,85,T Rowe Price,JG
388579,85,T Rowe Price,JG
388587,85,T Rowe Price,JG
388592,85,T Rowe Price,JG
388619,85,T Rowe Price,JG
332682,95,TAMRAC Insurance Group,JS
378292,85,"Taylor Farm Assisted Living, Inc.",JS
378344,85,"Taylor Farm Assisted Living, Inc.",JS
378350,85,"Taylor Farm Assisted Living, Inc.",JS
352905,96,The Fred Ezra Company,LL
353060,96,The Fred Ezra Company,LL
353062,96,The Fred Ezra Company,LL
319221,77,The Lenkin Company,JS
381000,85,The Sleep Center of NVPCCA,JS
378310,85,"The Support Center, Inc.",LL
365093,85,Town of Haverstraw,LL
365173,85,Town of Haverstraw,LL
365224,85,Town of Haverstraw,LL
365522,85,Town of Haverstraw,LL
388797,85,Town of Haverstraw,LL
360364,85,Town of Leesburg,JS
362745,85,Town of Leesburg,JS
362776,85,Town of Leesburg,JS
362800,85,Town of Leesburg,JS
362838,85,Town of Leesburg,JS
362851,85,Town of Leesburg,JS
362856,85,Town of Leesburg,JS
362891,85,Town of Leesburg,JS
381782,85,Towson United Methodist Church,JS
381755,85,Trex Company Inc.,LL
382048,85,Trex Company Inc.,LL
319368,77,Tri-State Stone & Building Supply,JS
335050,85,U.S. Chamber of Commerce,JG
339728,96,U.S. Chamber of Commerce,JG
378123,85,U.S. Chamber of Commerce,JG
339440,96,U.S. Postal Service Brentwood,LL
339495,96,U.S. Postal Service Brentwood,LL
339502,96,U.S. Postal Service Brentwood,LL
339504,96,U.S. Postal Service Brentwood,LL
339731,96,U.S. Postal Service Brentwood,LL
339815,96,U.S. Postal Service Brentwood,LL
399792,85,U.S. Postal Service Brentwood,LL
387839,85,UAW Local 239,LL
330117,96,"Unicom Government, Inc (formerly GTSI)",JS
330624,96,"Unicom Government, Inc (formerly GTSI)",JS
330683,96,"Unicom Government, Inc (formerly GTSI)",JS
330695,96,"Unicom Government, Inc (formerly GTSI)",JS
331098,96,"Unicom Government, Inc (formerly GTSI)",JS
331622,96,"Unicom Government, Inc (formerly GTSI)",JS
380889,85,Union Memorial Sports Medicine,LL
330127,96,United Jewish Communities,JS
380901,85,United States Attorney's Office,JS
338827,96,United States Postal Service Arlington,LL
339417,96,United States Postal Service Arlington,LL
339469,96,United States Postal Service Arlington,LL
339473,96,United States Postal Service Arlington,LL
339510,96,United States Postal Service Arlington,LL
339659,96,United States Postal Service Arlington,LL
339729,96,United States Postal Service Arlington,LL
339735,96,United States Postal Service Arlington,LL
339792,96,United States Postal Service Arlington,LL
339812,96,United States Postal Service Arlington,LL
301849,77,United Therapeutics,JG
301850,77,United Therapeutics,JG
353011,96,University Of Maryland,LL
353017,96,University Of Maryland,LL
353025,96,University Of Maryland,LL
355389,96,University Of Maryland,LL
380441,85,US Air Force Pentagon,JS
380990,85,US Air Force Pentagon,JS
382657,96,USDA- Ft. Detrick,JS
388623,85,USFWS/DMBM,JS
300807,77,Victor Graphics,LL
321755,77,Victor Graphics,LL
352369,96,Washington Suburban Sanitary Commission,JG
352394,96,Washington Suburban Sanitary Commission,JG
352600,96,Washington Suburban Sanitary Commission,JG
352636,96,Washington Suburban Sanitary Commission,JG
352638,96,Washington Suburban Sanitary Commission,JG
353182,96,Washington Suburban Sanitary Commission,JG
353721,96,Washington Suburban Sanitary Commission,JG
353734,96,Washington Suburban Sanitary Commission,JG
354312,96,Washington Suburban Sanitary Commission,JG
354358,96,Washington Suburban Sanitary Commission,JG
354400,96,Washington Suburban Sanitary Commission,JG
355384,96,Washington Suburban Sanitary Commission,JG
355391,96,Washington Suburban Sanitary Commission,JG
355409,96,Washington Suburban Sanitary Commission,JG
355411,96,Washington Suburban Sanitary Commission,JG
355417,96,Washington Suburban Sanitary Commission,JG
355431,96,Washington Suburban Sanitary Commission,JG
355437,96,Washington Suburban Sanitary Commission,JG
355440,96,Washington Suburban Sanitary Commission,JG
355444,96,Washington Suburban Sanitary Commission,JG
355478,96,Washington Suburban Sanitary Commission,JG
803534,7,Washington Suburban Sanitary Commission,JG
353037,96,Whole Health Management,LL
355480,96,Williams and Connolly LLP,JS
378179,85,Wilton Corporation,JS
381834,85,XL Health,LL
353021,96,YMCA of Central Maryland,JG
356491,96,YMCA of Central Maryland,JG
356543,96,YMCA of Central Maryland,JG
356581,96,YMCA of Central Maryland,JG
4010073,96,YMCA of Central Maryland,JG
