Name,Address,City,State,Zip,Phone
Ahwatukee,"5037 E Ray Rd.",Phoenix,AZ,85044,"(480) 785-2000"
Goodyear,"15367 W. McDowell Road, Suite C-2",Goodyear,AZ,85395,"(623) 535-9765"
"Oro Valley","1930 East Tangerine Road Suite 190","Oro Valley",AZ,85755,"(520) 955-2245"
Scottsdale,"15090 N. Northsight Blvd., Suite 120",Scottsdale,AZ,85260,"(480) 478-8783"
Carlsbad,"3247 Camino de Los Coches, Suite 100",Carlsbad,CA,92009,"(760) 633-4822"
"Mountain View","157 E. El Camino Real","Mountain View",CA,94040,"(650) 963-9111"
"Newbury Park","1714 Newbury Rd Ste S","Newbury Park",CA,91320,"(805) 716-6033"
"Old Pasadena","87 Fraser Alley",Pasadena,CA,91105,"(626) 340-2500"
"San Diego North Park","2852 University Avenue","San Diego",CA,"92104 <br/> Cross Streets: University Avenue & Utah Street <br/>","(619) 677-1341"
Aurora,"6040 South Gun Club Road, Unit G8",Aurora,CO,80016,"(720) 400-8742"
"Fort Collins","4360 S. College Ave","Fort Collins",CO,80525,"(970) 449-0170"
"Greenwood Village","9650 E. Arapahoe Rd.","Greenwood Village",CO,80112,"(303) 223-4635"
Littleton,"8100 Crestline Ave.  #A-5",Littleton,CO,80123,"(720) 253-1122"
Thornton,"1741 E 120th Ave",Northglenn,CO,80233-5735,"(303) 223-3513"
"Milford Cherry St.","169 Cherry Street",Milford,CT,06460,"(203) 701-6100"
Norwalk,"250 West Port Ave",Norwalk,CT,06851,"(203) 663-3003"
Brandon,"889 E. Bloomingdale Ave",Brandon,FL,33511,"(813) 324-8867"
Clermont,"4391 S Hwy 27",Clermont,FL,"34711 </br></br>Hwy 27 and</br> Hartwood Marsh Rd","(352) 394-5227"
"Hunter's Creek","12402 S. Orange Blossom Trail Suite 8",Orlando,FL,32837,"(407) 217-2448"
"Jacksonville - San Pablo","14286 Beach Blvd, Suite 40",Jacksonville,FL,32250,"(904) 223-3200"
Jupiter,,,,,
Naples,"2349 Vanderbilt Beach Rd., #500",Naples,FL,34109,"(239) 963-8585"
"Orlando - 55W",,,,,
Oviedo,"1361 Alafaya Trail Suite 100",Oviedo,FL,32765,"(407) 542-0977"
"Palm Beach Gardens","4230 Northlake Blvd","Palm Beach Gardens",FL,33410,"(561) 427-2034"
"Port Orange","3861 South Nova Road","Port Orange",FL,32127,"(386) 795-4822"
"Sarasota University Park","8440 Cooper Creek Blvd","University Park",FL,34201,"(941) 358-8252"
"South Tampa","4212 S Henderson Blvd",Tampa,FL,33629,"(813) 289-5420"
"Tampa Carrollwood","14438 N. Dale Mabry Hwy",Tampa,FL,33618,"(813) 443-0865"
"Winter Park","1997-A Aloma Ave","Winter Park",FL,32792,"(407) 790-4001"
Alpharetta,"735 N. Main St, Suite 1700",Alpharetta,GA,30009,"(770) 864-5492"
"Johns Creek","8465 Holcomb Bridge Road, Suite 240","Johns Creek",GA,30022,"(678) 620-3623"
"Buffalo Grove","190 McHenry Rd","Buffalo Gove",IL,60089,"(847) 541-3000"
"Chicago - West Loop","313 S Peoria Street",Chicago,IL,60607,"(872) 999-3444"
"Chicago Lincoln Park","2417 N. Clark St.",Chicago,IL,60614,"(773) 327-7500"
"Naperville 75th & Naper Blvd",,,,,
Schaumburg,"165 W. Golf Rd",Schaumburg,IL,60195,"(847) 310-3100"
Fishers,"11647 Fishers Station Dr",Fishers,IN,46038,"(317) 767-5550"
"Indianapolis Glendale","2625 E. 62nd St #1007",Indianapolis,IN,46220,"(317) 517-6129"
"Cedar Rapids","5313 N. Park Place NE","Cedar Rapids",IA,52402,"(319) 826-3410"
"Iowa City","1604 B Sycamore St","Iowa City",IA,52240,"(319) 333-1313"
Lawrence,"1520 Wakarusa Dr",Lawrence,KS,66047,"(785) 727-2965"
Lenexa,"12940 W 87th Street Pkwy",Lenexa,KS,66215,"(913) 217-7128"
"Overland Park 119th","7812 W 119th St.","Overland Park",KS,66213,"(913) 433-2582"
"Overland Park 148th","14868 Metcalf Avenue","Overland Park",KS,66223,"(913) 851-4269"
"Prairie Village","7600 State Line Road,Suite 208A","Prairie Village",KS,66208,"(913) 815-0990"
Wichita,"8338 E. 21st ST North, Suite 305",Wichita,KS,67206,"(316) 295-2939"
Lexington,"171 Lowry Ln Suite 168",Lexington,KY,40503,"(859) 268-4853"
Lafayette,"5417 Johnson St",Lafayette,LA,70503,"(337) 247-9666"
Metairie,"5029 Veterans Memorial Blvd.",Metairie,LA,70006,"(504) 270-1805"
Rockville,"10028 Darnestown Rd.",Rockville,MD,20850,"(301) 637-9360"
"Boston - North Station","226 Causeway St.",Boston,MA,"02114 <br>(617) 4-BOXING</br> <br>OR</br>","(617) 426-9464"
Danvers,"29 Andover St",Danvers,MA,01923,"(978) 705-4100"
Framingham,"235 Old Connecticut Path",Framingham,MA,01701,"(508) 861-7300"
"North Andover","137 Turnpike Street (Eaglewood Shops)","North Andover",MA,01845,"(978) 620-0255"
Norwood,"1206 Boston Providence Highway",Norwood,MA,02062,"(617) 640-9646"
Saugus,"329 Broadway (Rt 1 South)",Saugus,MA,01906,"(781) 417-6858"
Woburn,"425 Washington Street",Woburn,MA,01801,"(844) 526-9464"
"Ann Arbor","2115 W. Stadium Blvd","Ann Arbor",MI,48103,"(734) 794-3700"
Brighton,"8491 W. Grand River Ave, #100",Brighton,MI,48116,"(810) 229-2582"
Canton,"5848 N. Sheldon Rd.",Canton,MI,48187,"(734) 207-0337"
"Farmington Hills","31196 Haggerty Rd",Farmington,MI,48331,"(248) 579-5138"
Kentwood,"4585 28th St SE",Kentwood,MI,49512,"(616) 956-6549"
Shelby,"55221 Shelby Road","Shelby Township",MI,48316,"(248) 608-4944"
Troy,"5075 Rochester Rd.",Troy,MI,48085,"(248) 562-2031"
"Arden Hills","3529 Lexington Ave N","Arden Hills",MN,55126,"(651) 317-8895"
"Coon Rapids","12475 Riverdale Blvd NW","Coon Rapids",MN,55433,"(763) 323-0100"
Edina,"5300 Edina Industrial Blvd. #100",Edina,MN,55439,"(952) 314-6341"
"Lakeville / Apple Valley","7630 160th St. W",Lakeville,MN,55044,"(507) 581-8113"
Wayzata,"830 Lake Street East",Wayzata,MN,55391,"(669) 500-8727"
Woodbury,"8150 Coller Way, Suite 300",Woodbury,MN,55125,"(651) 304-1920"
Ballwin,"14944 Manchester Rd.",Ballwin,MO,63011,"(636) 220-1087"
Belton,"910 E. North Ave, Suite K",Belton,MO,64012,"(816) 322-8881"
"Blue Springs","1821 S 7 Highway","Blue Springs",MO,64014,"(816) 295-6149"
Chesterfield,"1635 Clarkson Rd",Chesterfield,MO,63017,"(636) 536-4800"
"Creve Coeur","11615 Olive Blvd","Creve Coeur",MO,63141,"(314) 942-1200"
"Lee's Summit","336 S.W. Blue Parkway","Lee's Summit",MO,64063,"(816) 875-6540"
Liberty,"8670 N.E. Flintlock Rd",Liberty,MO,64157,"(816) 533-4344"
Parkville,"6270 Jefferson",Parkville,MO,64152,"(816) 584-0550"
"Rock Hill","9494 Manchester Rd","Rock Hill",MO,63119,"(314) 925-1523"
"Springfield Campbell","4560 S. Campbell Ave Suite 108",Springfield,MO,65810,"(417) 413-5013"
"St. Charles","4750 Mid Rivers Mall Dr",Cottleville,MO,63376,"(636) 922-2269"
"St. Joseph","139 N. Belt Hwy, Suite M","St. Joseph",MO,64506,"(816) 671-0418"
Missoula,"1200 W. Kent",Missoula,MT,59801,"(406) 926-1770"
"Omaha West Maple","3525 N 147th St, Unit 103",Omaha,NE,68116,"(402) 932-6711"
Concord,"Capitol Shopping Center <br> 80 Storrs Street",Concord,NH,03301,"(603) 219-0351"
Manchester,"460 Elm Street",Manchester,NH,03101,"(603) 206-5608"
"East Rutherford","85 New Jersey 17","East Rutherford",NJ,07073,"(201) 933-2800"
Hackensack,"Summit Plaza, 370 West Pleasantview Ave",Hackensack,NJ,07601,"(201) 937-2272"
Holmdel,"2145 State Route 35",Holmdel,NJ,07733,"(732) 344-6995"
Princeton,"485 Nassau Park Blvd",Princeton,NJ,08540,"(609) 375-8200"
"River Vale","688 Westwood Avenue","River Vale",NJ,07675,"(201) 301-8411"
Wayne,"113 US Highway 46",Wayne,NJ,07470,"(973) 837-8220"
Ardsley,"901-903 Saw Mill River Road",Ardsley,NY,10502,
"Forest Hills","69-40 Austin St","Forest Hills",NY,11375,"(917) 261-3808"
Huntington,"335 Main Street, Suite 2",Huntington,NY,11743,"(631) 425-4141"
Nanuet,"253 West Route 59",Nanuet,NY,10954,"(845) 367-9777"
"New York City","455 West 37th Street","New York",NY,10018,"(212) 564-1700"
Cary,"2046 Renaissance Park Place",Cary,NC,27513,"(919) 234-7499"
"Charlotte Ayrsley","2016 Ayrsley Town Blvd. STE E",Charlotte,NC,28273,"(704) 588-3391"
"Charlotte Ballantyne","3429 Toringdon Way, Suite 104",Charlotte,NC,28277,"(704) 910-0249"
Greenville,"3700-B Charles Blvd",Greenville,NC,27858,"(252) 565-0525"
"Columbus Henderson","1134 W. Henderson Rd",Columbus,OH,43220,"(614) 459-0200"
"Columbus Polaris","8481 Sancus Blvd",Columbus,OH,43240,"(614) 436-6060"
Grandview,"955 W 5th Avenue",Columbus,OH,43212,"(614) 291-2787"
"Highland Heights","779 Alpha Dr.","Highland Heights",OH,44143,"(440) 646-9107"
Hilliard,"3645 Fishinger Blvd.",Hilliard,OH,43026,"(614) 529-1900"
"Kettering Towne Center","2120 E. Dorothy Lane",Kettering,OH,45420,"(937) 938-5222"
"Liberty Township","4897 Princeton Road",Hamilton,OH,45011,"(513) 844-8900"
"Loveland  Cincinnati","10659 Loveland Madeira Rd",Loveland,OH,45140,"(513) 900-9150"
Medina,"5155 Buehlers Drive<br/> Suite 100",Medina,OH,44256,"(330) 952-2582"
Mentor,"7601 Mentor Avenue",Mentor,OH,44060,"(440) 951-1940"
"New Albany","5334 N. Hamilton Rd",Columbus,OH,43230,"(614) 775-6100"
Pickerington,"864 Refugee Rd",Pickerington,OH,43147,"(614) 755-6520"
Powell,"9979 Sawmill Parkway",Powell,OH,43065,"(614) 718-2200"
Solon,"33351 Aurora Rd",Solon,OH,44139,"(440) 498-7002"
Stow,"4433 Kent Road",Stow,OH,44224,"(330) 541-5670"
Westlake,"30691 Detroit Rd.",Westlake,OH,44145,"(440) 786-6536"
"South Tulsa","8245 S. Harvard Ave",Tulsa,OK,74137,"(918) 779-7053"
Malvern,"480 Lancaster Ave.",Malvern,PA,19355,"(484) 925-1592"
Trexlertown,"7150 Hamilton Blvd Suite #20",Trexlertown,PA,18087,"(610) 351-1938"
"Charleston - Wescott","The Corner at Wescott<br/>9500 Dorchester Rd Ste 340",Summerville,SC,29485,"(843) 376-4955"
"Myrtle Beach","1217 38TH AVENUE NORTH","MYRTLE BEACH",SC,29577,"(724) 553-1955"
"Title Boxing Club Columbia","275 Park Terrace Dr.",Columbia,SC,29212,"(803) 764-6085"
Clarksville,"1719 Wilma Rudolph Blvd",Clarksville,TN,37040,"(931) 245-2820"
"Franklin Cool Springs","1550 W. McEwen Drive </br>Suite 70",Franklin,TN,37067,"(615) 807-1341"
"Knoxville Cedar Bluff",,,,,
"Nashville-Church Street","1906 Church St.",Nashville,TN,37203,"(615) 942-5919"
"Nashville-Green Hills","4108 Hillsboro Pike",Nashville,TN,37215,"(615) 730-8375"
Allen,"300 N. Greenville",Allen,TX,75002,"(214) 644-2640"
"Arlington Cooper St.","5001 S. Cooper St., Suite 103",Arlington,TX,76017,"(817) 755-1692"
"Cedar Hill","305 W. FM 1382 #219","Cedar Hill",TX,75104,"(972) 291-9900"
"College Station","1601 South Texas Avenue","College Station",TX,77840,"(979) 431-3453"
"Dallas Central & Forest",,,,,
"Dallas North","3909 Frankford",Dallas,TX,75287,"(972) 307-7733"
"Dallas Uptown","4140 Lemmon Ave, Suite 275",Dallas,TX,75219,"(214) 520-2964"
Denton,"725 I-35 E South, #152",Denton,TX,76205,"(940) 808-1819"
"Downtown Ft. Worth","400 W 4th St","Fort Worth",TX,76102,"(817) 870-0000"
"Fort Worth Hulen","5270 S. Hulen St","Fort Worth",TX,76132,"(817) 423-1000"
Frisco,"3301 Preston Rd.",Frisco,TX,75034,"(972) 377-2222"
"Houston  Westchase","9630 Westheimer Rd. #600",Houston,TX,77063,"(713) 637-4246"
"Killeen - Stan Schlueter Loop","2904 East Stan Schlueter Loop, Building B",Killeen,TX,76542,"(254) 680-2999"
"Lake Worth","3980 Boat Club Road Suite 119","Lake Worth",TX,76135,"(817) 756-8444"
Mansfield,"1551 N. HWY 287",Mansfield,TX,76063,"(817) 453-1000"
McAllen,"4900 W. Expressway 83 Suite 150",McAllen,TX,78501,"(956) 992-1365"
McKinney,"5080 Virginia Pkwy",McKinney,TX,75070,"(214) 856-7007"
"Missouri City","4823 Highway 6","Missouri City",TX,77459,"(832) 539-1561"
"North Austin","13945 US 183 Ste C-3",Austin,TX,78717,"(512) 428-6278"
"North McAllen","4108 N 10th St STE 100",McAllen,TX,78504,"(956) 928-9433"
Plano,"6101 Windhaven Parkway, Suite 130",Plano,TX,75093,"(972) 378-0006"
"Round Rock","1401 S. Interstate 35","Round Rock",TX,78664,"(512) 351-6524"
Rowlett,"8405 Lakeview Parkway, Suite 200",Rowlet,TX,75088,"(972) 412-4431"
"The Woodlands","3335 College Park Dr. Suite 200","The Woodlands",TX,77384,"(832) 390-2140"
"Cottonwood Heights","7817 S. Highland Dr.","Cottonwood Heights",UT,84121,"(801) 676-1011"
Sugarhouse,"719 E 2100 S","Salt Lake City",UT,84106,"(801) 256-6808"
Fairfax,"10318 Willard Way",Fairfax,VA,22030,703-591-1900
"Falls Church","450 North Washington Street","Falls Church",VA,22046,"(703) 992-6888"
"Loudoun Station","43810 Central Station Dr., Suite 120",Ashburn,VA,20147,"(703) 729-4448"
Springfield,"6228 Rolling Road, Unit D-F",Springfield,VA,22152,"(703) 644-2582"
"Seattle - Greenwood","112 N 85th St.",Seattle,WA,98103,"(206) 297-5945"
"Cancun, Mexico","Av. Acanceh, Plaza Terraviva 1er Piso Local 14","Cancún, Quintana Roo",ET,77500,"+52 9988022726"
